/Users/mac/Documents/Mestrado/Dissertação/ContextNet/noop/Patrol/src/main/java/noop/mobile/PatrolMove.java
/Users/mac/Documents/Mestrado/Dissertação/ContextNet/noop/Patrol/src/main/java/noop/mobile/PatrolMoveTask.java
/Users/mac/Documents/Mestrado/Dissertação/ContextNet/noop/Patrol/src/main/java/noop/mobile/SolveOccurrenceTask.java
/Users/mac/Documents/Mestrado/Dissertação/ContextNet/noop/Patrol/src/main/java/noop/mobile/SendLocationTask.java
/Users/mac/Documents/Mestrado/Dissertação/ContextNet/noop/Patrol/src/main/java/noop/mobile/SendOccurrenceTask.java
/Users/mac/Documents/Mestrado/Dissertação/ContextNet/noop/Patrol/src/main/java/noop/mobile/Patrol.java
