camilawanous/interscity/ConnectionInterSCity.class
camilawanous/interscity/MonitorData.class
camilawanous/interscity/Teste.class
camilawanous/interscity/policing/PolicingOptimization.class
camilawanous/interscity/policing/SendGroupTopicTask.class
camilawanous/interscity/isctasks/UpdateCapabilityTask.class
camilawanous/interscity/policing/PatrolOptimizationTask.class
camilawanous/interscity/data/Occurrence.class
camilawanous/interscity/isctasks/AddPatrolTask.class
camilawanous/interscity/data/MonitorPatrol.class
camilawanous/interscity/policing/OptimizationTask.class
camilawanous/interscity/Monitor.class
camilawanous/interscity/SendTopicTask.class
camilawanous/interscity/policing/CheckOccurrenceResponseTask.class
camilawanous/interscity/UpdateResidentTask.class
